…
Looks like the relationship is negative, though not very strong. Now,
let’s look at what produces *R*<sup>2</sup>. First, we estimate
predicted values based on *β̂* that the model has estimated.

``` r
examiner_moves <- examiner_moves %>% 
  add_predictions(ols1, var = "P_move")
examiner_moves
```

    ## # A tibble: 12,870 x 8
    ##    old_pid first_au first_tc moves has_moved woman tenure P_move
    ##      <dbl>    <dbl>    <dbl> <dbl>     <dbl> <dbl>  <dbl>  <dbl>
    ##  1       1     3753     3700     2         1    NA  NA    NA    
    ##  2       2     3744     3700     0         0    NA  NA    NA    
    ##  3       3     4134     4100     2         1     0   8.78  0.692
    ##  4       5     3763     3700     1         1     0  11.4   0.670
    ##  5       7     2114     2100     1         1     0  12.4   0.662
    ##  6       8     3713     3700     0         0     0  17.0   0.623
    ##  7      10     2625     2600     1         1     0   5.91  0.716
    ##  8      11     1775     1700     4         1     0  10.7   0.676
    ##  9      12     3743     3700     0         0     0  20.8   0.591
    ## 10      13     2153     2100     2         1     0  12.9   0.657
    ## # … with 12,860 more rows
…
Let’s pick a threshold that’s close to the center of the distribution,
say 0.7, and generate predicted binary outcome for the move, given this
threshold `pr_moved_tr1`.

``` r
tr1 <- 0.7

test_sample <- test_sample %>% 
  mutate(pr_moved_tr1 = if_else(P_move>tr1,1,0))
test_sample
```

    ## # A tibble: 3,218 x 8
    ##    old_pid first_au first_tc has_moved woman tenure P_move pr_moved_tr1
    ##      <dbl>    <dbl>    <dbl>     <dbl> <dbl>  <dbl>  <dbl>        <dbl>
    ##  1      21     4135     4100         1     0   4.22  0.730            1
    ##  2      22     2838     2800         1     0   8.09  0.698            0
    ##  3      26     3739     3700         1     0  14.2   0.648            0
    ##  4      30     3735     3700         0     0   9.78  0.684            0
    ##  5      37     4131     4100         1     0   8.13  0.698            0
    ##  6      41     2625     2600         1     0  14.2   0.648            0
    ##  7      44     2876     2800         1     0  10.6   0.678            0
    ##  8      50     3679     3600         0     0  16.9   0.626            0
    ##  9      51     3714     3700         0     0  14.8   0.643            0
    ## 10      55     3714     3700         0     0  11.0   0.674            0
    ## # … with 3,208 more rows
…
